[
  {
    "email": "Sincere@april.biz",
    "name": "Leanne Graham",
    "phone": "1-770-736-8031",
    "image-url": "https://images.pexels.com/photos/3348748/pexels-photo-3348748.jpeg",
    "company": "Google"
  },
  {
    "email": "Shanna@melissa.tv",
    "name": "Ervin Howell",
    "phone": "010-692-6593",
    "image-url": "https://images.pexels.com/photos/3812944/pexels-photo-3812944.jpeg",
    "company": "Twitter"
  },
  {
    "email": "Nathan@yesenia.net",
    "name": "Clementine Bauch",
    "phone": "1-463-123-4447",
    "image-url": "https://images.pexels.com/photos/2100063/pexels-photo-2100063.jpeg",
    "company": "Google"
  },
  {
    "email": "Julianne.OConner@kory.org",
    "name": "Patricia Lebsack",
    "phone": "493-170-9623",
    "image-url": "https://images.pexels.com/photos/3228213/pexels-photo-3228213.jpeg",
    "company": "Microsoft"
  },
  {
    "email": "Lucio_Hettinger@annie.ca",
    "name": "Chelsey Dietrich",
    "phone": "(254)954-1289",
    "image-url": "https://images.pexels.com/photos/1385472/pexels-photo-1385472.jpeg",
    "company": "Google"
  },
  {
    "email": "Karley_Dach@jasper.info",
    "name": "Mrs. Dennis Schulist",
    "phone": "1-477-935-8478",
    "image-url": "https://images.pexels.com/photos/4725133/pexels-photo-4725133.jpeg",
    "company": "Microsoft"
  }
]